34412
39534
35559
34412
34850
35317
34407
39273
38659
35623
34220
37315
37071
36538
40216
38899
36423
38976
36447
35902
36100
35239
35012
36480
34630
36328
35918
40272
35579
39077
37981
37017
36384
35910
35371
34183
34600
40112
40279
34860
36114
35434
34203
39071
36713
36492
34438
39144
37070
35259
40195
34579
35446
37942
38968
36624
36173
39590
34672
35379
39066
39933
34834
34649
37599
38388
39517
38741
36688
34795
37693
37300
34531
35887
34199
38515
36524
35454
39689
35423
34777
37194
39837
34733
36138
39749
36702
37859
34591
34284
37863
34884
37673
36323
36110
37915
35894
39027
39464
39452
35940
40219
34363
39831
39688
35349
38778
38591
35495
34529
39446
35264
35106
34937
38687
35021
34509
35234
39550
39913
36385
35681
36285
34602
37113
39609
36171
40101
37650
37372
35338
35555
34483
39124
37084
36966
34679
34309
39850
40184
39818
40372
38541
35779
39927
34599
37612
39447
37209
39693
35281
37286
37737
37466
36242
37246
35906
34966
35022
34882
34334
39814
39192
34775
37061
35778
40164
34531
36683
35015
35327
34394
35292
34411
39886
37647
40266
34767
35444
39576
38682
39378
39953
35683
37066
38490
38130
39453
38486
39600
36459
35642
37948
34490
34446
36973
35055
39963
35494
39412
40102
35597
35751
39925
37886
39034
35112
36095
36984
40291
38634
39169
35445
36228
35474
37679
36264
35137
39539
39699
38929
36902
39312
37026
35748
40107
36341
38235
38882
38243
38583
37125
34841
40267
38853
36226
37605
36386
34778
37794
40020
40085
38995
39304
38696
38649
34651
37834
40015
34897
38444
36570
37172
40262
37729
38965
37103
34279
34986
38991
35649
39407
35321
35679
35724
39433
39108
35754
38110
39994
38270
39174
36485
36826
36825
34688
35248
34417
35469
34831
39028
35383
38393
39828
40269
37892
36292
39984
35539
34799
37898
38300
38288
37095
35306
36108
38905
37188
38295
37622
39462
38907
39697
37606
37140
37039
35232
36352
38231
38428
34792
34771
36676
34761
34537
39716
35313
40028
40256
39121
35433
34759
37876
38195
39182
39567
36650
35560
34975
37681
34913
35614
37164
38131
37491
38303
39122
40082
34216
38237
39361
37184
36021
38908
40066
37780
34710
37165
35547
36152
36252
34973
39470
34751
34782
36614
39266
38180
35883
34184
35512
38228
35122
35704
37011
40094
39701
37441
35378
35512
38012
35019
35485
34480
35280
40071
39361
34836
39348
39777
39168
34200
36332
38939
39168
40082
34303
38012
38439
40355
36754
34653
36304
35547
34732
34947
39777
38709
35097
35558
35522
36946
36009
36069
35253
37554
39140
36090
40299
40299
39318
36021
39751
36684
37020
38131
34209
39969
36481
35302
35758
38321
38321
36124
36720
35614
36709
36946
37342
36073
38939
36937
36901
37162
35593
37491
35758
36706
38709
37557
37184
35302
37022
40043
37165
35309
34975
37681
39348
36304
38797
38616
36246
40094
38436
35742
35358
40328
35536
40043
40312
37881
34973
34555
37224
37144
36706
39751
37162
34782
37351
35783
38505
35928
34748
35560
38973
38973
35704
35220
38112
34291
34710
40312
35354
35933
40002
36754
36668
34486
39266
37502
34528
38592
40137
34480
35933
36343
35433
37104
35358
36074
35496
35742
37956
35024
34780
37224
36435
36901
36398
36152
37020
35398
39182
35432
34913
36317
37887
39701
36117
36435
36252
38338
34979
39456
38592
37307
36937
39521
37022
34780
35573
34528
35180
35581
39134
38237
35019
37441
37662
37307
38949
38074
40121
35593
40328
35024
37648
37164
39731
34555
39821
36073
39288
35220
39062
38814
36090
36317
37373
35440
38199
36650
39121
37143
36069
37663
40264
34455
38195
39100
34462
35536
37143
40355
39487.
40071
36481
37351
35792
35122
35354
36246
35558
36074
36371
35828
37148
39288
35448
38679
35715
37899
35180
39209
36536
34656
35581
36239
38112
34653
34947
36332
34253
40264
35172
37104
39897
39821
34751
37662
39441
34661
38334
39456
34979
38505
38180
39752
35496
36661
35928
39731
38259
36908
36124
35440
38259
37887
37876
39134
37780
38949
38303
34462
35705
34661
36488
34235
36614
39416
37292
39441
36531
38262
40293
38944
35931
39454
37557
36531
34700
38797
34216
39416
40293
36775
38429
35138
37011
39454
35931
37148
35378
38944
34748
36652
40047
34700
34209
38429
36488
36668
35448
36775
40293
34291
34235
36149
39318
34722
37554
39897
38074
36652
39470
38908
34486
34307
35931
34732
40047
37797
38436
34759
37237
35522
37144
36531
37373
36709
34184
38228
40066
40002
38429
34200
35705
37663
38814
37237
